## IG Body
-4	0	-6	0	0	0	
## IG Hand 1
-1.5	4.4	0	0	0	0	
## IG Hand 2
1.5	4.4	0	0	0	0	
## IG Leg 1
-0.9	0	0	0	0	0	
## IG Leg 2
0.9	0	0	0	0	0	
## IG Hand 1 lower
0	-3	0	-80	0	-30	
## IG Hand 2 lower
0	-3	0	-110	0	10	
## IG Leg 1 lower
0	-2	0	0	0	0	
## IG Leg 2 lower
0	-2	0	0	0	0	
## IG Head
0	0	0	0	0	0	
## IG Foot 1
0	-4	0	0	0	0	
## IG Foot 2
0	-4	0	0	0	0	
## R2 Body
2	-3	-3	0	0	0	
## R2 Head
0	0	0	0	0	0	
## R2 Plug arm
0	1	-0.15	0	0	0	
## R2 Plug
0	0	1	0	0	0	
## R2 Leg 1
-1.3	1.7	0	0	0	0	
## R2 leg 2
1.3	1.7	0	0	0	0	
## R2 Foot 1
0	-0.8	0.5	0	0	0	
## R2 Foot 2
0	-0.8	0.5	0	0	0	
## Camera
2.98023e-09	4	3.4	0	0	0	
## Light 1
0	0	0	0	0	0	1
## Light 2
0	0	0	0	0	0	1
## Spotlight
0	0	0	-190	-180	0	1
